0
0
0
0
0
0
0
0
0
0
0
0
0
0
0
0
0
0
0
0
0
0
0
0
0
0
0
0
0
0
0
0
0
0
0
0
0
0
0
0
0
0
0
0
0
0
0
159.14
157.36
157.14
157.69
158.78
159.03
158.95
157.83
157.45
157.5
157.8
157.51
157.52
157.13
157.15
157.31
158.08
157.56
156.79
155.34
155.04
158.06
162.06
167.51
172.33
178.72
185.37
188.94
190.05
192.23
192.58
193.65
193.85
194.65
195
197.76
202.85
204.51
205.8
205.42
205.21
205.58
206.78
213.61
219.83
223.4
226.57
228.62
227.76
226.86
224.56
217.05
206.31
202.93
204.35
238.24
275.37
274.94
274.76
276.5
277.66
281.13
291.9
307.32
316.11
316.85
320.9
335.54
369.74
379.47
385.86
391.5
394.03
395.07
394.13
395.06
394.4
394.13
394.06
401.65
414.47
418.47
420.48
424.61
0
0
0
0
0
0
0
0
0
0
0
0
0
0
0
0
0
0
0
0
0
0
0
0
0
0
0
0
0
0
0
0
0
0
0
0
0
0
0
0
0
0
0
0
0
0
0
0
0
0
0
0
0
0
0
0
0
0
0
0
0
0
0
0
0
0
0
0
0
0
0
0
0
0
0
0
0
0
0
0
0
0
0
0
0
0
0
0
0
0
0
0
0
0
0
0
0
0
0
0
0
0
0
0
0
0
0
0
0
0
0
0
0
0
0
0
0
0
0
0
0
0
0
0
0
0
0
0
0
0
0
0
0
0
0
0
0
0
0
0
0
0
0
0
0
0
0
0
0
0
0
0
0
0
0
0
0
0
0
0
0
0
0
0
