0
689.612
822.503
163.324
164.596
163.022
159.964
157.381
158.506
158.104
158.579
158.341
157.946
477.005
478.882
475.705
474.439
475.043
474.599
474.892
475.059
475.121
474.579
631.702
628.923
627.322
629.421
630.196
632.278
630.661
629.064
629.018
626.912
624.009
622.742
471.073
481.534
489.151
854.102
178.641
185.301
188.938
190.217
192.157
192.684
193.636
193.839
194.494
195.255
197.881
202.774
204.66
205.517
205.627
205.14
205.06
207.545
213.548
219.708
223.394
226.512
228.467
227.786
226.885
224.444
217.089
206.81
202.781
620.137
238.422
557.312
544.236
548.62
552.426
554.621
558.911
576.634
607.927
629.815
632.562
633.291
649.459
712.948
755.025
385.931
391.498
394.026
394.775
394.051
395.023
394.417
394.071
394.093
401.769
414.311
418.229
421.052
424.644
427.42
426.815
388.787
394.024
404.359
386.716
401.165
399.707
0
0
0
0
0
0
0
0
0
0
0
0
0
0
0
0
0
0
0
0
0
0
0
0
0
0
0
0
0
0
0
0
0
0
0
0
0
0
0
0
0
0
0
0
