0
260.119
520.68
523.721
525.706
525.447
525.562
525.857
526.003
525.336
524.589
524.256
524.257
524.825
525.671
526.355
526.757
526.8
526.888
526.544
525.299
523.812
521.841
519.904
518.032
515.879
513.995
513.035
511.684
510.073
507.59
505.257
502.789
500.222
499.729
502.293
506.369
254.933
503.123
250.02
164.386
524.697
406.4
467.914
253.625
0
0
0
0
0
0
0
0
0
0
0
0
0
0
0
0
0
0
0
0
0
0
0
0
0
0
0
0
0
0
0
0
0
0
0
0
0
0
0
0
0
0
0
0
0
0
0
0
0
0
0
0
0
0
0
0
0
0
0
0
0
0
0
0
0
0
0
0
0
0
0
0
0
0
0
0
0
0
0
0
0
0
0
0
0
0
0
0
0
0
0
0
0
0
0
0
0
0
0
0
0
0
0
0
0
